ノート: クローリング：HTML編
…
    }
    html <- read_html(url)
    x <- html %>% 
      html_nodes(".data dd em") %>% 
      html_text()
    data <- bind_rows(data, 
                      tibble(year = i,
                             month = j,
                             support = x[1] %>% 
                               parse_number()))
  }
}
data

# A tibble: 39 x 3
    year month support
   <int> <int>   <dbl>
 1  2016     1    50.4
 2  2016     2    43.7
 3  2016     3    43  
 4  2016     4    46.9
 5  2016     5    48.6
 6  2016     6    44.3
 7  2016     7    42.2
 8  2016     8    47.3
 9  2016     9    48.5
10  2016    10    49.5
# … with 29 more rows
…
各年のページを読み込み、リンク先と調査日をスクレイプします。

次に各調査ページにアクセスしてスクレイプしますが、ここでjをlinksで回さずに1:length(links)（つまり1からリンクの数まで）で回しておきます。

各調査ページを読み込み、調査結果をxとして保存します。

そして支持率をsupport、調査日をdateとするデータフレームを作成し、dataに結合してきます。

ここで、jを数字で回すことで対応する調査日をdate[j]として取り出すことができます。

行数が世論調査の回数と一致しているので、ちゃんとデータが取れたようです。

data

# A tibble: 87 x 2
   date       support
   <date>       <dbl>
 1 2012-12-08    19.4
 2 2012-11-17    21  
 3 2012-10-07    26  
 4 2012-09-16    25.3
 5 2012-08-25    24.5
 6 2012-06-30    24.3
 7 2012-06-09    27.7
 8 2012-05-12    25.5
 9 2012-04-14    20.6
10 2012-03-10    30.3
# … with 77 more rows
…
